Experience vs. description based decision-making project: DDM parameter recovery with the optim function
…
tmp %>%  
  group_by(key, changeFactor) %>%
  summarise(meanPropDiff = mean(muPropDiff),
            semPropDiff = sem(muPropDiff), .groups="keep")

## # A tibble: 30 x 4
## # Groups:   key, changeFactor [30]
##    key            changeFactor meanPropDiff semPropDiff
##    <chr>                 <dbl>        <dbl>       <dbl>
##  1 mu_deltaChange          1.1       0.0203     0.00609
##  2 mu_deltaChange          1.2       0.0390     0.0118 
##  3 mu_deltaChange          1.3       0.0563     0.0173 
##  4 mu_deltaChange          1.4       0.0725     0.0225 
##  5 mu_deltaChange          1.5       0.0877     0.0276 
##  6 mu_deltaChange          1.6       0.102      0.0325 
##  7 mu_deltaChange          1.7       0.116      0.0372 
##  8 mu_deltaChange          1.8       0.128      0.0419 
##  9 mu_deltaChange          1.9       0.141      0.0464 
## 10 mu_deltaChange          2         0.152      0.0508 
## # … with 20 more rows
…
